Working Report_Black Friday
…
##   Unique Customer(s)
## 1               5891

There are 5891 Unique Customers are sitting in the Black Friday data. In other words, many customers have multiple transactions for different items.

Count the number of transactions of each customer

customers_transaction = data %>%
                          group_by(User_ID) %>%
                          count(User_ID)
setorderv(customers_transaction,"n",-1)
customers_transaction

## # A tibble: 5,891 x 2
## # Groups:   User_ID [5,891]
##    User_ID     n
##  * <fct>   <int>
##  1 1001680  1025
##  2 1004277   978
##  3 1001941   898
##  4 1001181   861
##  5 1000889   822
##  6 1003618   766
##  7 1001150   752
##  8 1001015   739
##  9 1002909   717
## 10 1001449   714
## # â€¦ with 5,881 more rows

It looks like User_ID 1001680 shows up the most on our master ledger of shopper data. Since each individual row represents a different transaction, this user made over 1000 total transactions!

Calculate the total spending of each customer

Now letâ€™s do some investigation regarding store customers and their purchases. We will start by computing the total purchase amount by user ID

customers_total_purchase_amount = data %>%
                                    group_by(User_ID) %>%
                                    summarise(Purchase_Amount = sum(Purchase))
setorderv(customers_total_purchase_amount,"Purchase_Amount",-1)
customers_total_purchase_amount

## # A tibble: 5,891 x 2
##    User_ID Purchase_Amount
##  * <fct>             <int>
##  1 1004277        10536783
##  2 1001680         8699232
##  3 1002909         7577505
##  4 1001941         6817493
##  5 1000424         6573609
##  6 1004448         6565878
##  7 1001015         6511302
##  8 1003391         6476786
##  9 1001181         6387899
## 10 1000549         6310604
## # â€¦ with 5,881 more rows
…
Our data clearly shows that the amount of money made from each age group correlates proportionally with the number of customers within the age groups. However, when it comes to the average spending amount of each transaction, the difference is not that obvious. This can be valuable information for the store, as it might want to add more products geared towards this age group in the future, or perhaps work on marketing different items to increase a broader diversity in the age groups of their customers.

Now, we track down the top 5 products by Age.

data[data$Product_ID %in% top_5$Product_ID,] %>%
  select(User_ID, Product_ID, Age, Purchase) %>%
  group_by(Product_ID, Age) %>%
  summarize(Total_purchase = sum(as.numeric(Purchase)),
            Count = n()) %>%
  mutate(Average = Total_purchase/Count)

## # A tibble: 35 x 5
## # Groups:   Product_ID [5]
##    Product_ID Age   Total_purchase Count Average
##    <fct>      <ord>          <dbl> <int>   <dbl>
##  1 P00025442  0-17          852540    52  16395 
##  2 P00025442  18-25        4884642   282  17321.
##  3 P00025442  26-35       10594786   595  17806.
##  4 P00025442  36-45        5917938   348  17006.
##  5 P00025442  46-50        2098048   122  17197.
##  6 P00025442  51-55        2041357   117  17447.
##  7 P00025442  55+          1143115    70  16330.
##  8 P00057642  0-17          552468    33  16741.
##  9 P00057642  18-25        4446409   288  15439.
## 10 P00057642  26-35        9110947   581  15681.
## # â€¦ with 25 more rows
…
OCCUPATION

Next, letâ€™s examine people do different kinds of jobs would have different purchasing behaviour, focusing on if the top items are targeting to people from specific occupations.

Firstly, we must group the data by User_ID to remove duplicates.

Occupation_data = data %>%
  select(User_ID, Occupation) %>%
  group_by(Occupation) %>%
  distinct() %>%
  summarize(Count = n())

Occupation_data

## # A tibble: 21 x 2
##    Occupation Count
##    <fct>      <int>
##  1 0            688
##  2 1            517
##  3 2            256
##  4 3            170
##  5 4            740
##  6 5            111
##  7 6            228
##  8 7            669
##  9 8             17
## 10 9             88
## # â€¦ with 11 more rows
…
Occupation 4, 0 and 7 have the higher total purchase than other occupations, and they are the majority of customers at this store.

The total spending of each person

avg_Occupation_spending_per_person = data %>%
  select(User_ID, Occupation, Purchase) %>%
  group_by(Occupation) %>%
  summarize(Total_purchase = sum(as.numeric(Purchase))) %>%
  full_join(Occupation_data, by = "Occupation") %>%
  group_by(Occupation) %>%
  summarize(Average = Total_purchase/Count)

avg_Occupation_spending_per_person

## # A tibble: 21 x 2
##    Occupation  Average
##    <fct>         <dbl>
##  1 0           909615.
##  2 1           801843.
##  3 2           911232.
##  4 3           943697.
##  5 4           888555.
##  6 5          1013742.
##  7 6           811692.
##  8 7           821050.
##  9 8           858506.
## 10 9           609310.
## # â€¦ with 11 more rows
…
The average spending amount of each transaction

avg_Occupation_spending_per_transaction = data %>%
  select(User_ID, Occupation, Purchase) %>%
  group_by(Occupation) %>%
  summarize(Total_purchase = sum(as.numeric(Purchase)),
            Count = n(),
            Average = Total_purchase/Count)

avg_Occupation_spending_per_transaction

## # A tibble: 21 x 4
##    Occupation Total_purchase Count Average
##    <fct>               <dbl> <int>   <dbl>
##  1 0               625814811 68120   9187.
##  2 1               414552829 45971   9018.
##  3 2               233275393 25845   9026.
##  4 3               160428450 17366   9238.
##  5 4               657530393 70862   9279.
##  6 5               112525355 11985   9389.
##  7 6               185065697 19822   9336.
##  8 7               549282744 57806   9502.
##  9 8                14594599  1524   9577.
## 10 9                53619309  6153   8714.
## # â€¦ with 11 more rows
…
